code;name
240000;Муром I
240014;Муром II
240029;Городская
240033;Приокский
240048;Платформа  284 км
240052;Стройдеталь
240118;Платформа   10 км
240122;Разъезд 15 км
240137;Бурцевская
240141;Сусановская
240156;Безлесная
240160;Платформа   З2 км
240175;Ост. Пункт   З4 км
240187;Высоково
240207;Юромка
240300;Селиваново
240404;Волосатая
240419;Платформа   67 км
240423;Ост. Пункт   17 км
240508;Нерудная
240512;Тюрмеровская
240527;Лебедево
240531;Передел
240546;Судогда
240705;Восход
240715;Платформа   80 км
240809;Эсино
240813;Платформа   89 км
240828;Ост. Пункт   92 км
240902;Ковров-Грузовой
241604;Вековка
241873;Варские
241905;Тумская
241910;Ост. Пункт  112 км
241924;Гуреевский (зк.)
242005;Великодворье
242016;Дубровский
242109;Курлово
242113;Окатово
242128;Ост. Пункт   71 км
242202;Гусь-Хрустальный
242217;Ост. Пункт   56 км
242306;Комиссаровка
242310;Платформа   46 км
242325;Ост. Пункт   42 км
242401;Неклюдово
242414;Ост. Пункт   З0 км
242518;Ост. Пункт   18 км
242522;Головино
242607;Улыбышево
242611;Платформа   10 км
242715;Тасин
242720;Струя
242804;Торфопродукт
242819;Мильцево
242823;Ильичев
242908;Нечаевская
243008;Заколпье
243012;Золотковский
243116;Платформа  2З2 км
243205;Алферово
243309;Добрятино
243313;Максимовский
243402;Меленки
243417;Злобино
243421;Верхоунжа
243506;Бутылицы
243510;Зимницы
243525;Левино
243530;Кондаково
243544;Папулино
243559;Амосово
243563;Просинское
243578;Стригино
243582;Кольдино
243607;Навашино
243614;Платформа  З06 км
243629;Велетьма
243633;Сонино
243648;Родяково
243718;Ост. Пункт  З24 км
243722;Валтово
243737;Степурино
243807;Теша
243811;Вердеевка
243826;Венец
243915;Саконы
244000;Мухтолово
244015;Личадеево
244021;Балахониха
244034;Маяк
244049;Ост. Пункт  З86 км
244119;Шумлейка
244123;Слезавка
244138;Ост. Пункт  408 км
244142;Ост. Пункт  409 км
244157;Костылиха
244208;Арзамас II
244212;Трактовый-Арзамасский
244227;Щедровка
244301;Бобыльская
244417;Ревезень
244424;Вадок
244509;Вадокский Карьер
244602;Перевозская
244617;Кемары
244706;Смагино
244710;Каменище
244814;Камкино
244903;Тарталей
245003;Сергач
245018;Ачка
245022;Ост. Пункт  5З8 км
245037;Андосово
245041;Юморга
245107;Пильна
245215;Кумашка
245227;Княжиха
245304;Шумерля
245319;Мыслец
245412;Ост. Пункт  604 км
245427;Пинер
245431;Ост. Пункт  614 км
245446;Чаркли
245450;Ост. Пункт  62З км
245501;Вурнары
245516;Ост. Пункт  6З2 км
245520;Апнерка
245535;Ост. Пункт  645 км
245546;Ачакс
245554;Ост. Пункт  652 км
245569;Мокры
245573;Ост. Пункт  661 км
245605;Арзамас I
245709;Пешелань
245802;Шатки
245817;Поя
246006;Сатис
246010;Лесогорск
246103;Берещино
246203;Первомайск-Горьковский
246307;Лукоянов
246311;Веселей
246326;Николай-Дар
246400;РазинскаяРаз
246504;Арзинка
246608;Ужовка
246612;Кендя
246716;Ост. Пункт   97 км
246720;Кемля
246735;Ост. Пункт   91 км
246805;Оброчное
246818;Ост. Пункт   82 км
246824;Ост. Пункт   76 км
246839;Атьма
246913;Платформа   67 км
246928;Ост. Пункт   6З км
247009;Красный Узел
247013;Сахарный Завод
247028;Кочуново
247032;Рейтарский
247047;Ремезенки
247051;Огаревка
247066;Ромодановский
247102;Чамзинка
247117;Ост. Пункт   98 км
247206;Нуя
247210;Мачкассы
247225;Разъезд 118 км
247309;Атяшево
247314;Ост. Пункт  1ЗЗ км
247329;Бобоедово
247333;Разъезд 148 км
247403;Ардатов
247507;Светотехника
247511;Басово
247600;Алатырь
247704;Алтышево
247719;Разъезд 199 км
247723;Атрат
247738;Ост. Пункт  215 км
247808;Киря
247812;Разъезд 2З5 км
247901;Буинск
247916;Ост. Пункт  252 км
248001;Ибреси
248016;Разъезд 265 км
248020;Разъезд 275 км
248035;Янгличи
248042;Разъезд 289 км
248105;Канаш
248119;Платформа   91 км
248124;Малый Цивиль
248139;Атыково
248143;Платформа   74 км
248158;Алешево
248162;Кибечи
248177;Платформа  684 км
248209;Траки
248302;Цивильск
248317;Ост. Пункт   46 км
248321;Платформа   З8 км
248336;Ост. Пункт   З2 км
248340;Ост. Пункт   28 км
248355;Шоркино
248361;Хорнвары
248374;Янорсово
248389;Мижеры
248410;Пост 9 км
248425;Ишлей
248504;Чебоксары
248603;Новочебоксарск
248711;Батеево
248726;Чубаево
248730;Шоркистры
248800;Урмары
248815;Тансарино
248823;Чешлама
248834;Ост. Пункт  722 км
248904;Тюрлема
248919;Воробьевский
248923;Ширданы
248938;Платформа  746 км
249004;Свияжск
249019;Ост. Пункт  75З км
249023;Волга-Пост
249038;Ходяшево
249042;Ост. Пункт   21 км
249057;Бишбатман
249108;Албаба
249112;Кубня
249127;Утяшки
249131;Шушерма
249201;Куланга
249216;Ост. Пункт   55 км
249220;Ключи
249305;Каратун
249314;Кильдуразы
249324;Платформа   95 км
249339;Лощи
249409;Буа
249413;Бюрганы
249502;Бурундуки
249517;Елхово
250001;Юдино
250016;Ост. Пункт  787 км
250020;ВРД
250035;Займище
250040;Обсерватория
250054;Платформа  774 км
250069;Ост. Пункт  771 км
250116;Старое Аракчино
250124;Новое Аракчино
250209;Лагерная
250213;Лагерная
250228;АдмиралтейскаяСлобода
250302;Казань
250406;Казань
250707;Вахитово
250711;Платформа Ометьево II
250726;Березовая Роща
250730;Комбинат
250745;Юбилейная
250754;Столбище
250764;Аэропорт
250800;Ометьево
250815;Новаторов
250820;Компрессорный
250904;Восстание
250919;Восстание-Пассажирская
250923;Ост. Пункт  795 км
250938;Левченко
250942;Ост. Пункт 797 км
251004;Дербышки
251019;Платформа  804 км
251023;Ост. Пункт  807 км
251108;Васильево
251112;Атлашкино
251127;Ост. Пункт  766 км
251201;Зеленый Дол
251216;Гари
251305;Паратск
251413;Марбумкомбинат
251428;Краснозаринский
251502;Волжск
251606;Помары
251610;Яльчевский
251625;Платформа   З2 км
251630;Илеть
251714;Платформа   4З км
251803;Шелангер
251907;Суслонгер
252007;Кундыш
252100;Сурок
252219;Пемба
252312;Куяр
252401;Йошкар-Ола
252416;Ост. Пункт  108 км
252420;Аксаматово
252505;Нолька
252517;Платформа  126 км
252524;Платформа  1З1 км
252806;Нужьялы
252810;Ост. Пункт  1З7 км
252825;Турша
252914;Платформа  151 км
252929;Табашино
252933;Ост. Пункт  165 км
252948;Ост. Пункт  171 км
253008;Яранск
253103;Кендери
253207;Высокая Гора
253211;Каменка-Санаторий
253226;Калинино
253300;Бирюли
253315;Ост. Пункт  82З км
253327;Чепчуги
253404;Куркачи
253419;Ост. Пункт  8З5 км
253423;Камаево
253438;Чурилино
253442;Чулпаново
253457;Платформа  849 км
253508;Арск
253512;Чекурча
253527;Ост. Пункт  871 км
253531;Корса
253546;Ост. Пункт  880 км
253550;Миндюш
253601;Шемордан
253616;Иштуган
253620;Коинсар
253635;Ост. Пункт  915 км
253646;Состамак
253654;Братья Комаровы
253705;Кукмор
253712;Разъезд 9З4 км
253809;Вятские Поляны
253813;Ост. Пункт  942 км
253902;Ямное
254002;Заструг
254106;Сосновка
254110;Ост. Пункт  962 км
254125;Кочетло
254203;Кизнер
254318;Ягул
254411;Мултан
254426;Саркуз
254515;Сюгаил
254522;Люга
254604;Можга
254619;Чумайтло
254708;Пычас
254712;Ост. Пункт 1050 км
254727;Карамбай
254816;Гожня
254820;Ост. Пункт 1079 км
254835;Уром
254905;Агрыз
254918;Разъезд 4 км
254924;Разъезд 9 км
254939;Успьян
254996;Юски
255109;Алнаши
255113;Мукшур
255217;Ижбобья
255221;Терси
255310;Ост. Пункт   17 км
255325;Лудзя
255332;Платформа   27 км
255344;Платформа Совхозный
255409;Ижевск
255503;Позимь
255607;Вожой
255611;Платформа   58 км
255626;Июль Им. Анатолия
255630;Болгуры
255700;Кварса
255804;Воткинск
255908;Заводская
255912;Воложка
256012;Сундуково
256027;Кичево
256116;Совхоз Удмурский
256120;Шевырялово
256135;Бугрыш
256205;Сарапул
256309;Сарапул
256506;Армязь
256510;Ост. Пункт    6 км
256525;Ост. Пункт   12 км
256604;Ужуиха
256614;Ост. Пункт   27 км
256703;Сайгатка
256807;Сайгатка
257000;Кама
257015;Шолья
257104;Кама
257301;Каучук
257405;Камбарка
257509;Амзя
257602;Нефтекамск
257617;Нефтекамск-Пассажирский
257706;Карманово
257710;Энергетик
257725;Бадряш
257800;Янаул
257814;Куюк
257903;Нефтекамск
257918;Ост. Пункт 125З км
257922;Кинчак
257937;Рабак
258003;Куеда
258018;Бикбардинский
258022;Осиновая Гора
258037;Стреж
258107;Чернушка
258111;Улык
258215;Ост. Пункт 1ЗЗ1 км
258224;Агарзя
258234;Трун
258304;Щучье Озеро
258319;Атер
258412;Сарс
258427;Бартым
258501;Чад
258610;Черная Речка
258624;Ненастье
258709;Пудлинговый
258802;Саранинский Завод
258817;Каменный
258906;Красноуфимск
258910;Разъезд 1441 км
259006;Зюрзя
259100;Уфимка
259114;Осыплянский
259129;Ост. Пункт 1478 км
259133;Афанасьевский
259218;Ключевая
259415;Шангин
259420;Контугановский
259434;Кленовский
259504;Бисертский Завод
259519;Киргишаны
259523;Чеботаево
259608;Солдатка
260003;Нижний Новгород-Сортировочный
260018;Ост. Пункт  429 км
260022;Платформа  4З1 км
260107;Нижний Новгород - Автозавод
260111;Кустовая
260126;Счастливая
260130;Садовая
260145;Орловка
260200;Нижний Новгород-Московский
261203;Костариха
261218;Чаадаево
261222;Кооперативная
261307;Починки
261311;Копосово
261326;Народная
261330;Высокое
261345;Дубравная
261350;Козино
261364;Сормово
261415;Варя
261519;Новое Сормово
261612;Алешино
261627;Лукино
261805;Балахна
261909;Правдинск
261913;Ваняты
261928;Могилицы
261932;Липовка
261947;Шеляухово
262009;Заволжье
262013;Ост. Пункт   58 км
262102;Петушки
262206;Костерево
262210;Болдино
262314;Сушнево
262329;Красная Охота
262403;Ундол
262418;Ост. Пункт  170 км
262511;Колокша
262600;Юрьевец
262704;Владимир
262719;Автоприбор
262723;Боголюбово
262812;Лемешки
262827;Выселки
262831;Карякинская
262901;Новки II
262916;Новая Жизнь
262920;Тереховицы
262935;Камешково
262941;Второво
263001;Новки I
263020;Ост. Пункт  24З км
263035;Сергейцево
263047;Федулово
263054;Ост. Пункт  25З км
263105;Ковров I
263113;Ковров II
263213;Пост 262 км
263317;Осипово
263321;Ост. Пункт  27З км
263336;Крестниково
263340;Гостюхино
263355;Сарыево
263410;Ост. Пункт  288 км
263425;Мстера
263432;Сеньково
263707;Вязники
263711;Платформа  З24 км
263815;Им. Войкова
263828;Денисово
263919;Молодники
263923;Чулково
264004;Гороховец
264019;Галицкая
264112;Чичерево
264127;Инженерная
264146;Ильиногорская
264150;Горбатовка
264216;Великое Озеро
264319;Золино
264413;Фролищи
264502;Сейма
264517;Ост. Пункт  З92 км
264521;Жолнино
264536;Решетиха
264606;Доскино
264610;Пушкино
264704;Дзержинск
264714;Калининская
264803;Игумново
264818;Ворошиловская
264837;Ост. Пункт  421 км
264907;Петряевка
264911;Сартаково
264926;Окская
264930;Пост З25 км
265007;Моховые Горы
265100;Моховые Горы
265204;Моховые Горы
265308;Толоконцево
266005;Сухобезводное
266029;Чибирь
266033;Пруды
266048;Ост. Пункт   27 км
266052;Постой
266067;Кайск
266071;Ост. Пункт   55 км
266103;Лапшанга
266724;Обход
266813;Буренино
266917;Зубанья
267002;Шахунья
267017;Шестериково
267106;Тоншаево
267110;Янгарка
267125;Ост. Пункт  701 км
267200;Пижма
267214;Одошнур
267303;Буреполом
267407;Шерстки
267411;Пост 747 км
267500;Ежиха
267515;Ежуры
267520;Ост. Пункт  781 км
267604;Иготино
267619;Шакали
267708;Котельнич II
267801;Котельнич I
267816;Мокрицы
267905;Котельнич I
268113;Ронжино
268128;Ацвеж
268132;Капиданцы
268147;Юма
268151;Даровица
268202;Марадыковский
268310;Ост. Пункт  901 км
268325;Быстряги
268414;Ост. Пункт  907 км
268429;Шалегово
268503;Оричи
268518;Социалистическая
268607;Пологовка
268611;Соловейко
268626;Ломовка
268700;Сережа
268715;Черемас
268804;Сечуга
268908;Суроватиха
268912;Разъезд 281 км
268927;Ост. Пункт  З21 км
269012;Разъезд 296 км
269027;Зименки
269031;Разъезд З10 км
269046;Чаглово
269050;Пост З2З км
269065;Шониха
269073;Ост. Пункт  284 км
269084;Ост. Пункт  З02 км
269101;Металлист
269116;Абабково
269205;Ворсма
269216;Убежицы
269224;Выболово
269309;Кожевенное
269313;Стрелково
269328;Ефимьево
269332;Копнино
269347;Буревестник
269402;Кудьма
269417;Борисовская
269421;Ройка
269436;Платформа  З41 км
269440;Большая Ельня
269455;Анкудиновка
269469;Пионерский
269506;Кстово
269510;Ост. Пункт   12 км
269601;Зелецино
269703;Мыза
270005;Лянгасово
270018;Лянгасы
270109;Чухломинский
270113;Ост. Пункт  951 км
270202;Киров
270217;Красносельский
270306;Киров-Котласский
270403;Киров-Заводская
270503;Матанцы
270804;Стрижи
270819;Цапели
270823;Ост. Пункт  9З2 км
270908;Матанцы
270912;Ост. Пункт    9 км
271008;Слободское
271101;Белка-Слободская
271205;Вахрушево
271309;Долгушино
271402;Гирсово
271417;Ост. Пункт   З2 км
271421;Медянка
271436;Ост. Пункт   46 км
271440;Чащинский
271455;Ост. Пункт   62 км
271466;Ост. Пункт   50 км
271474;Ост. Пункт   41 км
271489;Ост. Пункт   44 км
271609;Юрья
271614;Мечкино
271629;Ост. Пункт   79 км
271648;Мосинский
271807;Великая
271811;Ост. Пункт   98 км
271826;Пахарь
271830;Долиничи
271900;Мураши
271915;Комсомольский
271928;Ост. Пункт  1З0 км
272000;Безбожник
272015;Ост. Пункт  140 км
272023;Рогозино
272104;Староверческая
272119;Ост. Пункт  157 км
272208;Вазюк
272212;Нагибино
272227;Ост. Пункт  17З км
272301;Опарино
272316;Ост. Пункт  192 км
272405;Латышский
272419;Ост. Пункт  204 км
272509;Альмеж
272513;Ост. Пункт  219 км
272617;Ост. Пункт  2ЗЗ км
272621;Новый
272706;Пинюг
272710;Октябрьский
272725;Платформа  257 км
272804;Панасюк
272814;Разъезд 15 км
272829;Маялово
272903;Подосиновец
273003;Лунданка
273018;Платформа  281 км
273022;Макуха
273037;Кентус
273107;Луза
273111;Ост. Пункт  З02 км
273126;Платформа  З09 км
273130;Бумажный
273145;Платформа  З16 км
273152;Платформа  З21 км
273200;Сусоловка
273215;Христофорово
273229;Ост. Пункт   25 км
273304;Вятка
273408;Поздино
273501;Полой
273516;Мутница
273520;Бумкомбинат
273605;Чепецкая
273709;Просница
273713;Конып
273728;Луговой
273732;Ардаши
273747;Береговой
273751;Ост. Пункт 1021 км
273770;Рехино
273910;Кордяга
274006;Зуевка
274105;Коса
274114;Черноус
274129;Леваны
274203;Фаленки
274218;Князи
274222;Сада
274237;Бачумово
274307;Яр
274311;Дизьмино
274326;Балышур
274330;Ост. Пункт    8 км
274345;Пудемский
274358;Ост. Пункт   2З км
274364;Перелом
274415;Струговской
274519;Шахровский
274608;Стальная
274701;Озерница-Кировская
274810;Ост. Пункт   92 км
274824;Тонкино
274909;Лесные Поляны
275009;Шлаковая
275102;Котчиха
275206;Пещера
275300;Кирс
275403;Светлополянск
275418;Фосфоритная
275422;Ост. Пункт  17З км
275507;Верхнекамская
275511;Лесная
275530;Кожиль
275615;Убыть
275620;Ост. Пункт 1150 км
275634;Ост. Пункт 1147 км
275704;Глазов
275719;Безум
275723;Туктым
275738;Ост. Пункт 1169 км
275742;Ост. Пункт 1177 км
275757;Ост. Пункт 1185 км
275808;Балезино
275812;Диньшур
275827;Шур
275901;Пибаньшур
275916;Пост 1217 км
276016;Ост. Пункт  142 км
276110;Пижил
276124;Гуляево
276139;Инга
276317;Ост. Пункт   92 км
276321;Торфяница
276406;Ува I
276514;Ува II
276618;Квака
276622;Каркалай
276711;Областная
276815;Кияик
276825;Синтек
276834;Азино
276904;Люкшудья
276919;Пестовка
276923;Угловой
277004;Чур
277019;Кекоран
277108;Пастухово
277112;Лынга
277127;Лоза
277305;Кушья
277409;Игра
277517;Меньил
277593;Люк
277714;Андрейшур
277818;Зилай
278100;Гарь
