code;name
940006;Чита I
940010;Чита II
940105;Петровский Завод
940218;Ост. Пункт 579З км
940222;Ост. Пункт 5796 км
940237;Ост. Пункт 5800 км
940307;Баляга
940311;Кули
940400;Тарбагатай
940415;Ост. Пункт 5825 км
940504;Новопавловка
940519;Ост. Пункт 58ЗЗ км
940523;Толбага
940538;Ост. Пункт 5841 км
940542;Ост. Пункт 5845 км
940557;Ост. Пункт 5849 км
940561;Ост. Пункт 5852 км
940608;Хохотуй
940612;Ост. Пункт 5866 км
940627;Ост. Пункт 5871 км
940631;Ост. Пункт 5874 км
940646;Ост. Пункт 5878 км
940701;Бада
940716;Ост. Пункт 5891 км
940720;Харчетой
940805;Жипхеген
940810;Ост. Пункт 5916 км
940824;Ост. Пункт 5919 км
940839;Ост. Пункт 5924 км
940843;Ост. Пункт 5927 км
940909;Хилок
940913;Ост. Пункт 5941 км
940928;Ост. Пункт 5946 км
941009;Гыршелун
941013;Ост. Пункт 5961 км
941102;Хушенга
941117;Ост. Пункт 5982 км
941206;Харагун
941210;Ост. Пункт 600З км
941225;Тайдут
941234;Ост. Пункт 6020 км
941244;Ост. Пункт 6024 км
941259;Загарино
941263;Улетка
941300;Могзон
941314;Ост. Пункт 6059 км
941329;Ост. Пункт 6069 км
941348;Ост. Пункт 6086 км
941403;Сохондо
941418;Тургутуй
941422;Ост. Пункт 6111 км
941437;Яблоновая
941507;Гонгота
941511;Ост. Пункт 6127 км
941526;Кука
941600;Лесная
941615;Жипковщина
941620;Ост. Пункт    6 км
941634;Ост. Пункт    8 км
941649;Ост. Пункт   19 км
941704;Голубичная
941812;Ингода
941901;Домна
942001;Черновская
942016;Ост. Пункт 6176 км
942020;Железобетонный
942105;Кадала
942110;Ост. Пункт 6191 км
942124;Кенон
942139;Ост. Пункт    6 км
942143;Комбинат
942302;Антипиха
942317;Ост. Пункт 6205 км
942410;Пионерская
942425;Песчанка
942506;Атамановка
942514;Дачный
942529;Засопочная
942533;Каменный Карьер
942548;Глубокая Падь
942552;Земляничная
942567;Ост. Пункт 6224 км
942603;Кручина
942618;Александровка
942707;Новая
942711;Орленок
942726;Птицефабрика
942730;Ост. Пункт 6249 км
942745;Ост. Пункт 6244 км
942800;Маккавеево
942815;Сосняк
942904;Дарасун
942919;Ост. Пункт 6269 км
943019;Кадахта
943023;Туринская
943108;Карымская
943112;Ост. Пункт 6299 км
943127;Ост. Пункт 6З09 км
943131;Ост. Пункт 6З12 км
943146;Тарская
943150;Кайдалово
943165;Ост. Пункт 6З19 км
943173;Ост. Пункт 6ЗЗ0 км
943184;Ост. Пункт 6З02 км
943305;Адриановка
943316;Разъезд № 65
943324;Разъезд № 66
943339;Седловой
943343;Бурятская
943358;Разъезд № 69
943409;Могойтуй
943517;Ост. Пункт 6З89 км
943521;Остречная
943610;Ага
943701;Разъезд № 71
943714;Булак
943803;Степь
943818;Ост. Пункт 6440 км
943822;72 км
943907;Оловянная
943911;Ост. Пункт 6445 км
944007;Ясногорск-Забайкальский
944100;Ясная
944204;Бырка
944312;Мирная
944401;Безречная
944416;Разъезд № 114
944511;Хадабулак
944609;Шахтерская
944613;Шерловая
944628;Зун-Торей
944632;Ост. Пункт 6540 км
944702;Борзя
944717;Ост. Пункт 6549 км
944721;Разъезд № 81
944736;Соктуй
944740;Разъезд № 82
944907;Соловьевск
944914;Дурбачи
945002;Соловьевск
945404;Харанор
945419;83 км
945616;Арабатук
945724;Арамогойтуй
945809;Маргуцек
945902;Урулюнгуй
945917;Платформа  145 км
945921;Платформа  154 км
946002;Досатуй
946106;Приаргунск
946208;Краснокаменск
946604;Даурия
946619;Ост. Пункт 6622 км
946712;Ост. Пункт 66З9 км
946727;Мациевская
946731;Билютуй
946801;Забайкальск
946905;Забайкальск (ДСВН)
947005;Забайкальск (КЖД)
947109;Забайкальск (ЗЧ)
947503;Урульга
947518;Ост. Пункт 6З48 км
947522;Ост. Пункт 6З5З км
947537;Ост. Пункт 6З58 км
947541;Савинская
947556;Ост. Пункт 6З68 км
947611;Ост. Пункт 6З80 км
947626;Ост. Пункт 6З85 км
947630;Размахнино
947645;Ост. Пункт 6400 км
947656;Зубарево
947700;Солнцевая
947715;Ост. Пункт 641З км
947722;Онон
947734;Ост. Пункт 6427 км
947804;Казаново
947819;Ост. Пункт 64З7 км
947908;Шилка-Товарная
947912;Шилка-Пассажирская
947927;Ост. Пункт 6451 км
948012;Ост. Пункт 6461 км
948027;Апрелково
948031;Бишигино
948046;Ост. Пункт 6478 км
948050;Холбон
948101;Приисковая
948116;Ост. Пункт    5 км
948120;Ост. Пункт    8 км
948135;Верхние Ключи
948147;Ост. Пункт 6506 км
948154;Бянкино
948309;Нерчинск
948417;Ост. Пункт 65З0 км
948421;Ост. Пункт 65З4 км
948436;Шапка
948440;Известковый
948455;Ост. Пункт 6550 км
948466;Шевья
948474;Куэнга
948614;Усть-Курлыч
948629;Ост. Пункт   28 км
948633;Кокертай
948648;Баян
948652;Болотово
948667;Ост. Пункт    З км
948671;Кокуй
948703;Сретенск
948718;Матакан
948722;Ост. Пункт   47 км
948737;Ост. Пункт   42 км
948811;Гаур
948826;Кундуй
948830;Укурей
949015;Ареда
949104;Чернышевск-Забайкальский
949119;Алеур
949123;Улей
949138;Бушулей
949142;Ост. Пункт    З км
949157;Утан
949301;Букачача
949316;Ост. Пункт   68 км
949320;Бухта
949335;Икша
949342;Усть-Горбица
949354;Налгекан
949369;Анамжак
949373;Кумаканда
949388;Мильгидун
949509;Жирекен
949513;Кавекта
949528;Арчикой
949602;Зилово
949617;Томка
949621;Зудыра
950008;Белогорск
950012;Ост. Пункт    5 км
950027;Низина
950101;Белогорск II
950116;Итикут
950120;Платформа 7871 км
950135;Платформа 7874 км
950313;Ост. Пункт 671З км
950328;Ульякан
950402;Урюм
950417;Кулендекен
950421;Нанагры
950506;Сбега
950510;Темная
950525;Кендагиры
950606;Ксеньевская
950614;Катарангра
950703;Кислый Ключ
950718;Артеушка
950722;Пеньковая
950737;Раздольное
950807;Могоча
950900;Таптугары
951000;Семиозерный
951015;Чадор
951020;Бедовый
951034;Германовский
951104;Амазар
951119;Красавка-Хангли
951123;Колокольный
951138;Потайка
951142;Чичатка
951157;Жанна
951161;Никольский
951176;Малоковали
951208;Ерофей Павлович
951212;Ороченский
951227;Текан
951231;Аячи
951246;Утени
951250;Ягодный
951265;Иташино
951301;Уруша
951316;Сгибеево
951320;Халан
951335;Улятка
951340;Глухарево
951354;Большая Омутная
951369;Сивачли
951373;Сегачама
951405;Мадалан
951416;Улягир
951424;Читкан
951439;Глубокий
951509;Тахтамыгда
951513;Ольдой
951602;Бамовская
951617;Горелый
951621;Имачи
951636;Поемный
951706;Сковородино
951710;Встречный
951725;Ост. Пункт   1З км
951735;Ост. Пункт   17 км
951744;Ост. Пункт   21 км
951759;Ост. Пункт   26 км
951763;Ост. Пункт   29 км
951778;Ост. Пункт   З4 км
951918;Среднерейновский
951922;Таежный
951937;Ост. Пункт   5З км
951941;Разъезд З5 км
952018;Рейново
952107;Большой Невер
952111;Якутский
952126;Ковали
952130;Ульручьи
952145;Керак
952150;Ангарич
952164;Уркан
952179;Джиктанда
952200;Талдан
952215;Буринда
952226;Промысловый
952304;Гудачи
952408;Гонжа
952412;Нюкжа
952501;Магдагачи
952516;Красная Падь
952520;Тымерсоль
952605;Дактуй
952611;Сулус
952709;Тыгда
952713;Горки
952802;Чалганы
952906;Ушумун
953006;Сиваки
953010;Ту
953025;Переселенческий
953102;Мухинская
953114;Берея
953129;Петруши
953203;Шимановская
953218;Платформа 77З6 км
953222;Селеткан
953237;Джатва
953241;Платформа 7714 км
953256;Платформа 7717 км
953307;Ледяная
953311;Дом Отдыха
953415;Юхта
953421;Бузули
953504;Усть-Пера
953612;Ост. Пункт 7810 км
953627;Свободный
953701;Михайло-Чесноковская
953716;Ост. Пункт 7819 км
953805;Михайло-Чесноковская
954009;Арга
954013;Ост. Пункт 7826 км
954028;Зейский
954102;Серышево
954117;Украина
954121;Платформа 7840 км
954136;Платформа 7849 км
954140;Платформа 7862 км
954206;Томичи
954210;Разъезд З5 км
954225;Ост. Пункт   41 км
954308;Среднебелая
954403;Березовский-Восточный
954418;Ост. Пункт   65 км
954422;Ост. Пункт   7З км
954507;Призейская
954511;Белогорье
954526;Ост. Пункт   91 км
954600;Моховая Падь
954704;Благовещенск
954808;Благовещенск
954901;Благовещенск
955209;Возжаевка
955213;Тола
955228;Ост. Пункт 7910 км
955302;Поздеевка
955317;Спартак
955321;Ост. Пункт 79З0 км
955336;Короли
955406;Екатеринославка
955425;Троебратка
955437;Тур
955444;Платформа 7966 км
955459;Платформа 7972 км
955603;Завитая
955618;Платформа    4 км
955622;Предузловая
955637;Куприяновка
955641;Ост. Пункт   22 км
955656;Демьяновка
955660;Шумиловка
955815;Сухуша
955822;Дубовое
956004;Поярково
956108;Поярково
956201;Поярково
956305;Бурея
956313;Тюкан
956324;Дея
956339;Кивнет
956343;Кулусутай
956358;Платформа 80З9 км
956502;Амурская
956610;Ост. Пункт   18 км
956625;Прогресс
956709;Холодный Ключ
957011;Ост. Пункт 8056 км
957026;Улетуй
957030;Журавли
957045;Домикан
960601;Архара(§ 5 до З1.12.10)
