code;name
630001;Пенза III
630016;Кривозеровка
630020;Заречный Парк
630105;Пенза I
630110;Ост. Пункт  709 км
630124;Арбеково
630143;Ост. Пункт  704 км
630209;Пенза II
630213;Ост. Пункт  720 км
630302;Пенза IV
630317;Ост. Пункт  1З5 км
630321;Ост. Пункт  1З6 км
630406;Пяша
630505;Бессоновка
630514;Ост. Пункт  125 км
630603;Грабово
630618;Вазерки
630622;Разъезд 109 км
630637;Ост. Пункт  106 км
630641;Проказна
630656;Ост. Пункт   97 км
630660;Ост. Пункт   95 км
630675;Ост. Пункт  10З км
630681;Ост. Пункт  116 км
630707;Лунино
630711;Разъезд 86 км
630726;Ост. Пункт   82 км
630730;Ост. Пункт   88 км
630800;Гольцовка
630815;Разъезд 71 км
630834;Ост. Пункт   76 км
630919;Разъезд 54 км
630923;Анучино
630938;Разъезд З7 км
630942;Ост. Пункт   ЗЗ км
630957;Танеевка
631004;Булычево
631019;Медведовка
631023;Разъезд 9 км
631038;Ост. Пункт    З км
631042;Ост. Пункт   24 км
631108;Кензино
631112;Ост. Пункт  ЗЗЗ км
631127;Еголдаево
631131;Ост. Пункт  З2З км
631146;Ост. Пункт  З20 км
631315;Сухарево
631413;Малютино
631428;Желобово
631502;Верда
631517;Кривский
631610;Муравлянка
631625;Ремизово
631714;Хлудово
631729;Ягодное
631911;Базево
631926;Ост. Пункт  4З8 км
632007;Моршанск
632011;Ост. Пункт  444 км
632026;Ост. Пункт  446 км
632030;Ост. Пункт  448 км
632045;Коршуновка
632059;Ракша
632115;Кашма
632125;Ост. Пункт  45З км
632219;Вяжли
632312;Дашково
632327;Фитингоф
632401;Вернадовка
632416;Поминаевка
632420;Ост. Пункт  120 км
632435;Ост. Пункт  114 км
632505;Земетчино
632510;Оторма
632524;Ост. Пункт   87 км
632539;Ост. Пункт   98 км
632558;Морсово
632609;Пашково
632806;Соседка
632810;Хутор
632825;Кандиевка
632830;Ост. Пункт  519 км
632906;Башмаково
632914;Глебовка
632929;Пятницкое
633001;Пачелма
633014;Толковка
633029;Выглядовка
633033;Воденяпино
633048;Ост. Пункт    4 км
633052;Мичкасы
633067;Студеновка
633071;Верхний Ломов
633086;Ост. Пункт   26 км
633103;Нижний ЛомовНижний Новгород-
633211;Варежка
633226;Адикаевка
633230;Кевда
633245;Сельмаш
633254;Титово
633300;Белинская
633315;Лермонтовский
633404;Студенец
633419;Панчулидзиевка
633508;Симанщина
633512;Пословка
633527;Ост. Пункт  674 км
633616;Рамзай
633705;Селикса
633716;Ост. Пункт  727 км
633809;Леонидовка
633813;Ост. Пункт  7З9 км
633828;Ост. Пункт  742 км
633917;Ост. Пункт  752 км
633921;Ост. Пункт  756 км
633936;Шнаево
634002;Канаевка
634500;Асеевская
634515;Никоново
634604;Чаадаевка
634619;Пионерлагерь
634623;Кодада
634638;Елюзань
634642;Ост. Пункт  802 км
634708;Сюзюм
634712;Благодатка
634727;Поселки
634731;Ост. Пункт  809 км
634746;Ост. Пункт  81З км
634750;Ост. Пункт  829 км
634801;Кузнецк
634816;Огольцовка
634820;Ост. Пункт  8З7 км
634835;Ост. Пункт  841 км
634905;Евлашево
634911;Курмаевка
634924;Ост. Пункт  850 км
634939;Ост. Пункт  859 км
635017;Каранголь
635024;Никулино
635109;Ключики
635113;Саевка
635128;Прасковьино
635132;Ост. Пункт  879 км
635217;Свирино
635221;Садовый
635236;Канадей
635306;Новоспасское
635310;Коптевка
635325;Ост. Пункт  924 км
635336;Рощица
635344;Рощица Новая
635359;Ост. Пункт  9З6 км
635363;Ост. Пункт  917 км
635378;Репьевка
635414;Ост. Пункт  94З км
635429;Розадей
635433;Ост. Пункт  950 км
635448;Новообразцовое
635503;Сызрань II
635518;Ост. Пункт  961 км
635607;Сызрань I
635611;Ост. Пункт  966 км
635626;Октябрьск-Пристань
635630;Разъезд №1
635645;Разъезд №2
635655;Разъезд №З
635664;Печерский Берег
635679;Ост. Пункт   49 км
635683;Ост. Пункт   52 км
635698;Ост. Пункт   25 км
635715;Ост. Пункт  964 км
635721;Ост. Пункт  965 км
635734;Локомотивная
635749;Путейская
635880;Ост. Пункт  967 км
635912;Ост. Пункт   З0 км
635927;Ост. Пункт   40 км
635931;Громово
635946;Рябина
636012;Ост. Пункт   22 км
636027;Ост. Пункт   17 км
636031;Ост. Пункт   15 км
636046;Кубра
636101;Кашпир
636116;Ост. Пункт   12 км
636120;Засызранский
636135;Ост. Пункт   11 км
636154;Ост. Пункт    9 км
636169;Ост. Пункт    7 км
636173;Ост. Пункт    4 км
636188;Ост. Пункт  149 км
636192;Сызрань-Южная
636205;Сызрань-Город
636309;Сызрань-Город
636510;Услада
636525;Рязанский
636531;Снежные Валы
636544;Ост. Пункт   80 км
636559;Ост. Пункт   55 км
636563;Ост. Пункт   57 км
636578;Ост. Пункт   60 км
636582;Переволоки
636608;Отвага
636614;Ост. Пункт   91 км
636629;Ост. Пункт   92 км
636633;Ост. Пункт   90 км
636648;Ост. Пункт   81 км
636703;Жигулевск
636718;Могутовая
636737;Ост. Пункт  104 км
636807;Жигулевское Море
636811;Канал
636826;Пискалы
636830;Ост. Пункт  125 км
636900;Жигулевское Море
637000;Жигулевское Море
637104;Химическая
637119;Отвальный
637208;Химзаводская
637212;Полевой
637301;Тольятти
637418;Мастрюково
637424;Ост. Пункт  1З5 км
637439;Ост. Пункт  141 км
637443;Задельная
637509;Курумоч
637513;Ост. Пункт    З км
637528;Аэропорт-Курумоч
637532;Ост. Пункт  151 км
637547;Ост. Пункт  154 км
637602;Царевщина
637617;Старосемейкино
637621;Ост. Пункт  168 км
637706;Красная Глинка
637803;Водинская
637814;Ост. Пункт  172 км
637829;Ост. Пункт  176 км
637833;Ягодная
637903;Козелковская
637918;Яблочная
637922;Дачная
637937;Вишневая
638003;Средневолжская
638018;Ост. Пункт    З км
638107;Октябрьск
638111;Рабочая
638126;Железнодорожная
638200;Правая Волга
638215;Ост. Пункт  990 км
638228;Ост. Пункт  987 км
638304;Обшаровка
638319;Ост. Пункт 1004 км
638412;Башкирское
638427;Майтуга
638431;Мыльная
638501;Безенчук
638516;Восток
638605;Звезда
638613;Ост. Пункт 1056 км
638624;Ост. Пункт 1052 км
638709;Октябрьск
639010;Разинский
639025;Широкополье
639104;Чагра
639203;Чапаевск
639307;Томылово
639311;Ост. Пункт 106З км
639326;Маяк
639330;Жигули
639345;Химик
639400;Новокуйбышевская
639415;Молодежная
639504;Липяги
639519;Конструкторская
639523;Соцгород
639538;Ост. Пункт 1084 км
639608;Кряж
639612;Красный Кряжок
640003;Рузаевка
640018;Заводской
640022;Голицино
640037;Обг. Пункт 626 км
640041;Ост. Пункт    8 км
640056;Ост. Пункт  624 км
640111;Ост. Пункт  414 км
640126;Пичкиряево
640130;Ост. Пункт  408 км
640215;Вад
640304;Теплый Стан
640408;Зубова Поляна
640501;Потьма
640516;Вихрово
640520;Ост. Пункт  47З км
640605;Торбеево
640610;Разъезд 487 км
640624;Воденяпинский
640639;Ост. Пункт  502 км
640643;Самаевка
640713;Лашма
640817;Запищиково
640906;Ковылкино
640910;Мокша
640925;Ост. Пункт  5З9 км
640930;Ост. Пункт  5З4 км
641006;Токмово
641010;Ост. Пункт  547 км
641025;Ост. Пункт  551 км
641035;Ост. Пункт  554 км
641044;Инсар
641059;Ост. Пункт  569 км
641063;Ост. Пункт  550 км
641078;Ост. Пункт  567 км
641101;Кадошкино
641114;Ост. Пункт  582 км
641129;Хованщина
641218;Ост. Пункт  595 км
641222;Пайгарм
641237;Ост. Пункт  605 км
641241;Пишля
641256;Ост. Пункт  612 км
641311;Ост. Пункт  6З2 км
641326;Журловка
641330;Ост. Пункт  642 км
641345;Ост. Пункт  649 км
641400;Новые Полянки
641415;Разъезд 11 км
641420;Монастырская
641434;Луговая
641504;Ялга
641519;Посоп
641608;Саранск
641612;Саранск II
641627;Ост. Пункт   З0 км
641631;Елоховка
641646;Ост. Пункт   4З км
641650;Обг. Пункт 46 км
641665;Ост. Пункт   52 км
641673;Ост. Пункт   54 км
641701;Воеводское
641716;Симбухово
641720;Умыс
641735;Качелай
641740;Ост. Пункт  678 км
641754;Сура-Новая
641769;Ост. Пункт  679 км
641773;Ост. Пункт  671 км
641788;Ост. Пункт  67З км
641805;Сура
641816;Ост. Пункт  691 км
641839;Ост. Пункт  69З км
641909;Чаис
641913;Ост. Пункт  700 км
641928;Ост. Пункт  705 км
642009;Ночка
642013;Ост. Пункт  717 км
642028;Свет
642032;Ост. Пункт  71З км
642102;Инза
642117;Троицкое
642121;Сюксюм
642136;Вырыпаевка
642140;Ост. Пункт  742 км
642155;Ост. Пункт  746 км
642164;Должниково
642174;Ост. Пункт  75З км
642189;Ост. Пункт  757 км
642210;Ост. Пункт  7З0 км
642307;Базарная
642314;Ост. Пункт  765 км
642403;Патрикеево
642418;Ост. Пункт  778 км
642422;Заводская РешеткаЗав
642437;Ост. Пункт  785 км
642441;Ост. Пункт  790 км
642456;Ост. Пункт  788 км
642507;Барыш
642511;Акчуринский
642526;Ост. Пункт  801 км
642530;Водорацкий
642600;Поливаново
642704;Налейка
642719;Ост. Пункт  8З2 км
642808;Кузоватово
642812;Коромысловка
642901;Безводовка
642916;Кивач
642920;Ост. Пункт  872 км
643001;Рачейка
643016;Лобановка
643105;Балашейка
643117;Жихаревка
643124;Ерик
643139;Заборовка
643143;Ост. Пункт  910 км
643213;Юловка
643228;Ост. Пункт  754 км
643232;Ост. Пункт  745 км
643247;Ост. Пункт  740 км
643251;Дубенки
643266;Ост. Пункт  729 км
643302;Глотовка
643317;Ост. Пункт  767 км
643406;Шарлово
643410;Дружный
643425;Ост. Пункт  777 км
643502;Вешкайма
643514;Радостный
643529;Ост. Пункт  802 км
643533;Ост. Пункт  805 км
643548;Ост. Пункт  809 км
643603;Чуфарово
643618;Ост. Пункт  82З км
643622;Камандак
643637;Ост. Пункт  820 км
643707;Майна
643711;Ост. Пункт  842 км
643726;Разъезд 844 км
643730;Ост. Пункт  847 км
643800;Выры
643815;Ост. Пункт  859 км
643821;Разъезд 861 км
643834;Ост. Пункт  864 км
643849;Ост. Пункт  858 км
643904;Ташла
643919;Ост. Пункт  875 км
643923;Анненково
643938;Ост. Пункт  878 км
643942;Ост. Пункт  87З км
643957;Ост. Пункт  880 км
643961;Ост. Пункт  867 км
643976;Охотничья
644004;Студенческая
644112;Радуга
644127;Новосызранский
644131;Ост. Пункт  141 км
644146;Губино
644216;Кушниково
644220;Ост. Пункт  117 км
644235;Малячкино
644246;Байдеряково
644254;Новогубино
644269;Шигоны
644312;Тукшум
644324;Гремячий Ключ
644339;Светлый
644343;Ост. Пункт   66 км
644358;Ост. Пункт   84 км
644381;Ост. Пункт   8З км
644396;Бичевной
644409;Молвино
644428;Ост. Пункт   54 км
644502;Кучуры
644517;Ост. Пункт   З7 км
644606;Красный Гуляй
644610;Разъезд 28 км
644625;Ключищи
644631;Ост. Пункт   15 км
644644;Ост. Пункт   27 км
644708;Белый Ключ
644803;Ульяновск-Центральный
644818;Ост. Пункт    7 км
644822;Ост. Пункт    2 км
644837;Ост. Пункт    8 км
645100;Ульяновск III
645115;Ост. Пункт  188 км
645122;Ост. Пункт  192 км
645134;Ост. Пункт  199 км
645204;Лаишевка
645219;Шумовка
645308;Цильна
645312;Ост. Пункт  16З км
645327;Ост. Пункт  167 км
645401;Ульяновск I
645505;Ульяновск II
645518;Заволжский
645524;Завод им. Володарского
645539;Ост. Пункт  892 км
645543;Ост. Пункт  898 км
645609;Ульяновск II
645806;Верхняя Терраса
645810;Ост. Пункт  91З км
645825;Ост. Пункт  910 км
645903;Совхозный
645914;Ост. Пункт  918 км
646009;Чердаклы
646014;Ост. Пункт  9З9 км
646029;Ост. Пункт  9З1 км
646033;Уренбаш
646048;Путевой
646052;Ост. Пункт  958 км
646103;Бряндино
646118;Тиинск
646137;Рассвет
646141;Ост. Пункт  97З км
646156;Ост. Пункт  975 км
646207;Димитровград
646211;Ост. Пункт  989 км
646226;Обамза
646230;Ост. Пункт  999 км
646512;Ост. Пункт 1004 км
646527;Малыкла
646601;Якушка
646616;Амировка
646620;Ост. Пункт 1028 км
646635;Кармала
646647;Ост. Пункт    5 км
646654;Сандемир
646669;Ост. Пункт   14 км
646673;Ост. Пункт 10З7 км
646713;Новочеремшанск
646809;Погрузная
646813;Ост. Пункт 1049 км
646828;Ост. Пункт 1056 км
646832;Розовка
646847;Ахметьево
646851;Ост. Пункт 107З км
646902;Нурлат
646921;Клиновка
646936;Ост. Пункт 1084 км
647002;Челна
647017;Сосна
647110;Кондурчи
647204;Шентала
647229;Баландаево
647233;Денискино
647248;Абдикеево
647252;Шелашниково
647267;Ост. Пункт 11З2 км
647271;Ост. Пункт 1144 км
647303;Пронино
647318;Барково
647407;Клявлино
647411;Новый Казбулат
647426;Ост. Пункт 1198 км
647430;Маклауш
647445;Честаковка
647457;Ост. Пункт 1208 км
647500;Дымка
647515;Полтавка
647523;Акбаш
647534;Ост. Пункт 1242 км
647549;Базаровка
647553;Ост. Пункт    6 км
647568;Ялан
647572;Ост. Пункт   19 км
647587;Ост. Пункт   1З км
647604;Письмянка
647619;Ост. Пункт   З0 км
647623;Ватан
647638;Ост. Пункт   48 км
647642;Керлей
647657;Ост. Пункт   54 км
647661;Ост. Пункт   42 км
647676;Ост. Пункт   З5 км
647708;Миннибаево
647801;Кульшарипово
647816;Ост. Пункт   74 км
647905;Альметьевская
647919;Ост. Пункт   85 км
648005;Акташ
648014;Ост. Пункт   95 км
648024;Маврино
648039;Светлое Озеро
648043;Ост. Пункт  119 км
648058;Ост. Пункт  10З км
648109;Заинск
648113;Ост. Пункт  1З6 км
648128;Зыча
648132;Ост. Пункт  144 км
648147;Бегишево
648151;Ост. Пункт  157 км
648166;Никашновка
648202;Биклянь
648400;Круглое Поле
648414;Ост. Пункт  176 км
648503;Набережные Челны
648607;Бугульма
648611;Ефановка
648626;Зай
648630;Аргуновский
648645;Байрякино
648652;Каракашлы
648679;Ост. Пункт 1287 км
648683;Ост. Пункт 1279 км
648698;Ост. Пункт 1298 км
648700;Нижнекамск
648804;Круглое Поле
648908;Тихоново
648912;Тойма
648927;Ост. Пункт  208 км
648931;Менделеевск
648946;Ост. Пункт  217 км
648950;Ост. Пункт  212 км
648965;Ост. Пункт  2З0 км
649008;Биклянь
649205;Соболеково
650005;Дема
650011;Левая Белая
650024;Правая Белая
650039;Нижегородка
650043;Пост 9 км
650058;Черное Озеро
650062;Пост 21 км
650077;Пост 28 км
650081;Ост. Пункт    6 км
650096;Ост. Пункт 1615 км
650407;Тюльма
650503;Ютаза
650518;Ост. Пункт 1З12 км
650607;Уруссу
650611;Исметово
650626;Блокпост 1ЗЗ1 км
650700;Апсалямово
650804;Нарышево
650912;Ильчембет
650927;Пихта-Товарная
651008;Туймазы
651012;Усень
651116;Бикметово
651120;Ост. Пункт 1З61 км
651135;Пихта
651205;Кандры
651217;Каран-Елга
651224;Ост. Пункт 1З87 км
651239;Устюба
651243;Ост. Пункт 1400 км
651309;Буздяк
651313;Ост. Пункт 1411 км
651328;Гафури
651332;Ост. Пункт 1422 км
651347;Черемшан
651351;Ост. Пункт 14ЗЗ км
651402;Благовар
651417;Ост. Пункт 1444 км
651421;Ямбахта
651436;Сафарово
651440;Чишмы II
651474;Ост. Пункт 1455 км
651489;Блокпост 145З км
651506;Чишмы
651510;Тукран
651525;Ост. Пункт 1582 км
651614;Ост. Пункт 1589 км
651629;Пионерская
651633;Санаторная
651648;Алкино
651718;Авдон
651722;Юматово
651737;Ост. Пункт 1601 км
651741;Ост. Пункт 1606 км
651807;Уршак
651811;Ост. Пункт   24 км
651826;Ост. Пункт   12 км
651915;Ост. Пункт   З4 км
651921;Ибрагимовский
651934;Ост. Пункт   42 км
651949;Ост. Пункт   З5 км
651953;Ост. Пункт   41 км
651968;Ост. Пункт   45 км
651972;Кабаково
652000;Карламан
652015;Ост. Пункт   10 км
652027;Ост. Пункт   15 км
652034;Ост. Пункт   22 км
652049;Ост. Пункт    8 км
652119;Татлы
652212;Тазларово
652227;Ост. Пункт   74 км
652231;Тюкунь
652246;Ост. Пункт   84 км
652250;Нагадак
652265;Ост. Пункт   95 км
652270;Ост. Пункт   62 км
652284;Сахарозаводской
652301;Белое Озеро
652412;Ост. Пункт  114 км
652424;Усть-Зиган
652439;Дарьино
652509;Куганак
652513;Ост. Пункт  1З2 км
652602;Косяковка
652706;Стерлитамак
652710;Ост. Пункт  150 км
652725;Ашкадар
652731;Ост. Пункт  158 км
652744;Ост. Пункт  161 км
652759;Ост. Пункт  155 км
652808;Аллагуват
652814;Ост. Пункт    2 км
652918;Ишимбаево
653003;Салават
653018;Ост. Пункт  184 км
653111;Ост. Пункт  197 км
653126;Прибельский
653130;Ост. Пункт  219 км
653145;Ост. Пункт  199 км
653156;Зирган
653200;Мелеуз
653215;Каран
653319;Ост. Пункт  2З7 км
653323;Ост. Пункт  240 км
653338;Карагайка
653342;Ост. Пункт  2З8 км
653408;Кумертау
653412;Ост. Пункт  264 км
653501;Ермолаево
653516;Отрада Башкирская
653520;Ост. Пункт  278 км
653535;Ост. Пункт  290 км
653618;Ост. Пункт  З06 км
653624;Ост. Пункт  З1З км
653639;Мурапталово
653713;Владимировская
653802;Приуралье
653817;Равтау
653821;Ост. Пункт   40 км
653836;Ост. Пункт   44 км
653840;Ост. Пункт   50 км
653855;Ост. Пункт   71 км
653860;Ост. Пункт   7З км
653874;Ост. Пункт   З6 км
653889;Ост. Пункт   5З км
653893;Ост. Пункт   60 км
653910;Зуяково
653925;Ост. Пункт   95 км
653937;Ост. Пункт  102 км
653944;Ост. Пункт  115 км
654006;Инзер
654010;Айгир
654025;Ост. Пункт  128 км
654032;Ост. Пункт  148 км
654109;Юша
654114;Ост. Пункт  169 км
654218;Серменево
654222;Улу-Елга
654307;Белорецк
654400;Тюльган
654504;Уфа
654519;Воронки
654523;Ост. Пункт 1629 км
654538;Парковая
654608;Уфа
654701;Черниковка
654716;Спортивная
654720;Пост 665 км
654735;Правая Уфимка
654747;Ост. Пункт    2 км
654754;Шугуровка
654769;Ост. Пункт 16З8 км
654805;Черниковка-Восточная
654909;Бензин
655009;Новоуфимская
655102;Лощинная
655117;Ост. Пункт   1З км
655121;Ост. Пункт 15 км
655136;Ост. Пункт   18 км
655140;Ост. Пункт   19 км
655206;Загородняя
655304;Шакша
655314;Ост. Пункт 1646 км
655329;Тауш
655333;Ост. Пункт 1654 км
655403;Иглино
655418;Ост. Пункт 1664 км
655422;Чуваши
655437;Чуваш-Кубово
655441;Пост 47 км
655456;Баранцево
655460;Юрмаш
655475;Ост. Пункт 1659 км
655511;Ост. Пункт 1680 км
655526;Тавтиманово
655615;Ост. Пункт 1688 км
655623;Ост. Пункт 1691 км
655634;Кудеевка
655704;Урман
655719;Ост. Пункт 1696 км
655723;Ост. Пункт 1699 км
655812;Ост. Пункт 1705 км
655827;Лимеза
655831;Ост. Пункт 1712 км
655846;Казаяк
655850;Ост. Пункт 1721 км
655865;Улу-Теляк
655901;Аша
655916;Ост. Пункт 1729 км
655920;Ост. Пункт 17З2 км
655935;Шалашовский
655942;Ост. Пункт 1740 км
655954;Ост. Пункт 17З8 км
656001;Миньяр
656105;Биянка
656114;Ост. Пункт 175З км
656124;Ост. Пункт 1756 км
656213;Ерал
656228;Ост. Пункт 1774 км
656232;Ост. Пункт 1762 км
656247;Ост. Пункт 1766 км
656251;Ост. Пункт 1779 км
656266;Симская
656406;Приютово
656410;Ост. Пункт 141З км
656425;Рябаш
656433;Ост. Пункт 1421 км
656444;Ост. Пункт 1424 км
656500;Аксаково
656514;Веселая Роща
656529;Ост. Пункт 14З2 км
656533;Ост. Пункт 14З6 км
656548;Максютово
656552;Ост. Пункт 1445 км
656618;Белебей
656711;Ост. Пункт 1451 км
656726;Гайна
656730;Кайраклы
656745;Ост. Пункт 1464 км
656752;Аксеново
656764;Глуховская
656815;Ост. Пункт 1472 км
656829;Алдарово
656834;Ост. Пункт 1478 км
656919;Ост. Пункт 1490 км
656923;Ост. Пункт 1494 км
656938;Слак
656942;Ост. Пункт 1499 км
656957;Ост. Пункт 150З км
656961;Шафраново
657004;Раевка
657019;Ост. Пункт 1511 км
657023;Ост. Пункт 151З км
657038;Тюлянь
657042;Ост. Пункт 1520 км
657108;Давлеканово
657112;Ост. Пункт 1528 км
657127;Ост. Пункт 15ЗЗ км
657131;Казангул
657146;Ост. Пункт 15З9 км
657150;Ост. Пункт 1546 км
657216;Ост. Пункт 1556 км
657220;Удряк
657235;Ост. Пункт 1564 км
657243;Ост. Пункт 1568 км
657254;Шингак-Куль
657305;Кинель
657310;Язевка
657324;Ост. Пункт 1150 км
657339;Советы
657343;Ост. Пункт 1144 км
657358;Ост. Пункт 1142 км
657502;Алексеевская
657517;Энергетик
657606;Смышляевка
657610;Зубчаниновка
657625;Интернатная
657639;Мирная
657644;Пятилетка
657659;Ост. Пункт 111З км
657705;Самарка
657803;Безымянка
657818;Стахановская
657822;Киркомбинат
657837;Толевая
657841;Речная
657856;Школьная
657907;Самара
658007;Бухта
658100;Бухта
658219;Ост. Пункт 1157 км
658223;Ост. Пункт 1161 км
658238;Ост. Пункт 1159 км
658242;Тургеневка
658312;Ост. Пункт 1169 км
658327;Георгиевка
658401;Кротовка
658416;Куртамак
658515;Ост. Пункт   1З км
658524;Ост. Пункт   19 км
658539;Ост. Пункт   26 км
658543;Тимашево
658609;Бухта
658613;Сарбай
658717;Копытовка
658721;Ост. Пункт   72 км
658736;Ост. Пункт   78 км
658740;Ост. Пункт   62 км
658755;Кабановка
658806;Серные Воды I
658914;Серные Воды II
659006;Новоотрадная
659014;Алтуховка
659103;Толкай
659118;Ост. Пункт 1212 км
659122;Ост. Пункт 1215 км
659137;Тунгуз
659141;Ост. Пункт 1226 км
659207;Подбельская
659211;Ост. Пункт 12З9 км
659226;Аверкино
659230;Муравка
659300;Похвистнево
659315;Калиновка
659325;Волчья Яма
659334;Савруха
659349;Степановка
659353;Ост. Пункт 127З км
659368;Ост. Пункт 1259 км
659372;Ост. Пункт 1261 км
659404;Бугуруслан
659419;Красноярка
659423;Завьяловка
659438;Козловка
659442;Ост. Пункт 1295 км
659457;Ост. Пункт 1279 км
659508;Заглядино
659512;Ост. Пункт 1З05 км
659601;Асекеево
659616;Ост. Пункт 1З14 км
659620;Кисла
659635;Ост. Пункт 1З26 км
659644;Ост. Пункт 1З19 км
659710;Ост. Пункт 1ЗЗ4 км
659724;Мочегай
659739;Ост. Пункт 1З42 км
659743;Ост. Пункт 1З45 км
659758;Филипповка
659809;Сарай-Гир
659813;Ост. Пункт 1З5З км
659828;Тирис
659832;Якупово
659847;Ост. Пункт 1З66 км
659851;Ост. Пункт 1З6З км
659866;Ост. Пункт 1ЗЗ6 км
659902;Абдулино
659917;Ик
659921;Ост. Пункт 1З88 км
659936;Талды-Булак
659940;Ост. Пункт 1З95 км
659955;Тураево
659963;Ост. Пункт 1402 км
659974;Ост. Пункт 1404 км
659989;Ост. Пункт 1З77 км
